<?xml version="1.0" encoding="UTF-8" standalone="no"?>
<svg
   xmlns:dc="http://purl.org/dc/elements/1.1/"
   xmlns:cc="http://creativecommons.org/ns#"
   xmlns:rdf="http://www.w3.org/1999/02/22-rdf-syntax-ns#"
   xmlns:svg="http://www.w3.org/2000/svg"
   xmlns="http://www.w3.org/2000/svg"
   xmlns:sodipodi="http://sodipodi.sourceforge.net/DTD/sodipodi-0.dtd"
   xmlns:inkscape="http://www.inkscape.org/namespaces/inkscape"
   width="33"
   height="33"
   viewBox="0 0 33 33"
   fill="none"
   version="1.1"
   id="svg34"
   sodipodi:docname="android3.svg"
   inkscape:version="0.92.4 (5da689c313, 2019-01-14)">
  <metadata
     id="metadata40">
    <rdf:RDF>
      <cc:Work
         rdf:about="">
        <dc:format>image/svg+xml</dc:format>
        <dc:type
           rdf:resource="http://purl.org/dc/dcmitype/StillImage" />
        <dc:title></dc:title>
      </cc:Work>
    </rdf:RDF>
  </metadata>
  <defs
     id="defs38" />
  <sodipodi:namedview
     pagecolor="#ffffff"
     bordercolor="#666666"
     borderopacity="1"
     objecttolerance="10"
     gridtolerance="10"
     guidetolerance="10"
     inkscape:pageopacity="0"
     inkscape:pageshadow="2"
     inkscape:window-width="1278"
     inkscape:window-height="568"
     id="namedview36"
     showgrid="false"
     inkscape:zoom="12.090909"
     inkscape:cx="19.391932"
     inkscape:cy="16.5"
     inkscape:window-x="-8"
     inkscape:window-y="-8"
     inkscape:window-maximized="1"
     inkscape:current-layer="svg34" />
  <g
     transform="translate(-29.297109,-264.89183)"
     id="g5506"
     style="opacity:0.6">
    <rect
       style="fill:#f6f6f6;fill-opacity:1;stroke:none;stroke-width:0.13386722"
       id="c-4-14-6-4-9"
       y="284.67361"
       x="39.590378"
       rx="1.9063767"
       height="11.99071"
       width="3.8127534" />
    <path
       inkscape:connector-curvature="0"
       style="fill:#f6f6f6;fill-opacity:1;stroke:#ffffff;stroke-width:0;stroke-miterlimit:4;stroke-dasharray:none"
       id="rect8719-3-2-7-4-3"
       d="m 37.14455,274.84136 c -0.0063,0.0722 -0.01178,0.14537 -0.01178,0.21929 v 12.39025 c 0,1.33258 1.054753,2.40597 2.364175,2.40597 h 12.600092 c 1.309436,0 2.364189,-1.07339 2.364189,-2.40597 v -12.39025 c 0,-0.0739 -0.0025,-0.14712 -0.0088,-0.21929 h -17.3078 z" />
    <rect
       style="fill:#f6f6f6;fill-opacity:1;stroke:none;stroke-width:0.13386722"
       id="c-4-8-9-1-4-9"
       y="284.67361"
       x="48.191086"
       rx="1.9063767"
       height="11.99071"
       width="3.8127534" />
    <rect
       style="fill:#f6f6f6;fill-opacity:1;stroke:none;stroke-width:0.13386722"
       id="c-4-9-2-9-2-9"
       y="275.94418"
       x="32.163296"
       rx="1.9063767"
       height="11.99071"
       width="3.8127534" />
    <rect
       style="fill:#f6f6f6;fill-opacity:1;stroke:none;stroke-width:0.13386722"
       id="c-4-1-7-3-8-4"
       y="275.94418"
       x="55.618168"
       rx="1.9063767"
       height="11.99071"
       width="3.8127534" />
    <path
       inkscape:connector-curvature="0"
       id="path4090-4-4-4-8"
       d="m 44.839844,266.68945 c -4.264086,0.41137 -7.585612,3.53221 -7.638672,7.33789 h 17.193359 c -0.05307,-3.80568 -3.374587,-6.92652 -7.638672,-7.33789 z m -2.5625,2.96289 a 0.98621765,0.96328235 0 0 1 0.958984,0.96485 0.986328,0.96339013 0 1 1 -1.972656,0 0.98621765,0.96328235 0 0 1 1.013672,-0.96485 z m 7.363281,0 a 0.98621765,0.96328235 0 0 1 0.957031,0.96485 0.986328,0.96339013 0 1 1 -1.972656,0 0.98621765,0.96328235 0 0 1 1.015625,-0.96485 z"
       style="fill:#f6f6f6;fill-opacity:1;stroke:none;stroke-width:0.13386722" />
    <path
       inkscape:connector-curvature="0"
       style="fill:none;stroke:#f6f6f6;stroke-width:0.40160167;stroke-linecap:round;stroke-linejoin:round;stroke-miterlimit:4;stroke-dasharray:none;stroke-opacity:1"
       id="path4160-1-3-5-6"
       d="m 37.863283,266.32261 2.011061,3.48327" />
    <path
       inkscape:connector-curvature="0"
       style="fill:none;stroke:#f6f6f6;stroke-width:0.40160167;stroke-linecap:round;stroke-linejoin:round;stroke-miterlimit:4;stroke-dasharray:none;stroke-opacity:1"
       id="path4160-9-0-1-7-9"
       d="m 53.73086,266.32261 -2.011061,3.48327" />
  </g>
</svg>
