<?xml version="1.0" encoding="UTF-8"?>
<svg width="116px" height="116px" viewBox="0 0 116 116" version="1.1" xmlns="http://www.w3.org/2000/svg" xmlns:xlink="http://www.w3.org/1999/xlink">
    <!-- Generator: Sketch 61 (89581) - https://sketch.com -->
    <title>116 by 116 3 icons</title>
    <desc>Created with Sketch.</desc>
    <defs>
        <circle id="path-1" cx="54" cy="54" r="54"></circle>
    </defs>
    <g id="116-by-116-3-icons" stroke="none" stroke-width="1" fill="none" fill-rule="evenodd">
        <g id="data-access" transform="translate(-6.800000, 0.760000)">
            <circle id="Oval" fill="#E8E8E8" cx="64.8" cy="57.24" r="54"></circle>
            <g id="gear" transform="translate(12.420000, 64.260000)" fill-rule="nonzero">
                <g id="Group">
                    <path d="M37.9931874,25.9538382 C38.0678611,25.6125973 38.1300887,25.2713564 38.1837603,24.9309127 C38.1837603,24.9309127 43.1277472,23.4399769 43.1277472,23.4399769 C43.2063094,22.0829861 43.1619729,20.7403465 43.0017371,19.4240177 C43.0017371,19.4240177 37.983854,18.357241 37.983854,18.357241 C37.8057272,17.5567598 37.5708177,16.7754137 37.2861253,16.0155949 C37.2861253,16.0155949 40.8416591,12.1901884 40.8416591,12.1901884 C40.2551636,11.0030205 39.5605476,9.87565014 38.7764781,8.81604882 C38.7764781,8.81604882 33.906386,10.465646 33.906386,10.465646 C33.3533381,9.85492053 32.7559521,9.28485593 32.1173406,8.7586434 C32.1173406,8.7586434 33.3300022,3.62408463 33.3300022,3.62408463 C32.2589087,2.91369695 31.1139196,2.30057867 29.9082593,1.7871234 C29.9082593,1.7871234 26.4849597,5.7225569 26.4849597,5.7225569 C26.095259,5.60216504 25.7001135,5.48894943 25.2964115,5.39646419 C24.8919317,5.30318058 24.4890075,5.23142418 24.0860835,5.16923612 C24.0860835,5.16923612 22.6338454,0.112013243 22.6338454,0.112013243 C21.3293981,0.0474330975 20.0381742,0.100851205 18.7741748,0.27306594 C18.7741748,0.27306594 17.7279722,5.44430128 17.7279722,5.44430128 C16.9306802,5.63963847 16.1528345,5.89477163 15.3983243,6.20412128 C15.3983243,6.20412128 11.6841103,2.57723906 11.6841103,2.57723906 C10.5328989,3.19115419 9.43535837,3.90712289 8.41015779,4.72195471 C8.41015779,4.72195471 10.0272995,9.73851522 10.0272995,9.73851522 C9.45247122,10.3006067 8.9142024,10.9041567 8.41871384,11.5491658 C8.41871384,11.5491658 3.43894495,10.3125656 3.43894495,10.3125656 C2.74355154,11.4319637 2.14383253,12.6271039 1.64834397,13.8876227 C1.64834397,13.8876227 5.49556992,17.4036798 5.49556992,17.4036798 C5.40222778,17.7353532 5.31588685,18.0702159 5.24043572,18.4114568 C5.14553874,18.8459809 5.07242134,19.2805051 5.01097116,19.7142318 C5.01097116,19.7142318 0.0988762511,21.1948029 0.0988762511,21.1948029 C0.0382034866,22.5669423 0.10120999,23.9255277 0.284781637,25.2538161 C0.284781637,25.2538161 5.32755555,26.3253763 5.32755555,26.3253763 C5.50801604,27.0684525 5.73359054,27.7971773 6.00739169,28.5051725 C6.00739169,28.5051725 2.48064018,32.3002818 2.48064018,32.3002818 C3.09436014,33.5169493 3.81386688,34.6746168 4.63605071,35.7549478 C4.63605071,35.7549478 9.51547698,34.1013641 9.51547698,34.1013641 C10.0171871,34.6363473 10.5531229,35.1410326 11.1217282,35.6090429 C11.1217282,35.6090429 9.91528966,40.713306 9.91528966,40.713306 C11.0291642,41.4523956 12.2223799,42.0886349 13.4824899,42.6132522 C13.4824899,42.6132522 16.8956771,38.687387 16.8956771,38.687387 C17.2387071,38.7894406 17.5848486,38.8859131 17.9379906,38.9672363 C18.2911325,39.048561 18.6434967,39.113938 18.9958607,39.1713435 C18.9958607,39.1713435 20.4434317,44.2158091 20.4434317,44.2158091 C21.8007726,44.2939433 23.1448901,44.2421205 24.4602273,44.0627295 C24.4602273,44.0627295 25.5009849,38.9201961 25.5009849,38.9201961 C26.2096022,38.7471845 26.9042186,38.5263343 27.5809443,38.2624312 C27.5809443,38.2624312 31.3021588,41.8956897 31.3021588,41.8956897 C32.4953737,41.2793825 33.629473,40.548266 34.6920104,39.7182864 C34.6920104,39.7182864 33.0873148,34.7415898 33.0873148,34.7415898 C33.6302511,34.2217552 34.1381843,33.6620565 34.6118918,33.068871 C34.6118918,33.068871 39.6173303,34.3118491 39.6173303,34.3118491 C40.3376145,33.1916542 40.9606694,31.9917298 41.478715,30.7248331 C41.478715,30.7248331 37.6571587,27.2326945 37.6571587,27.2326945 C37.7823913,26.8133189 37.897513,26.3891596 37.9931874,25.9538382 Z M18.6403852,35.765313 C11.3208563,34.0798376 6.71989869,26.6323339 8.36426487,19.1306142 C10.0086311,11.6288946 17.2752658,6.91371059 24.5940167,8.59838756 C31.913545,10.2846605 36.5137245,17.731367 34.8693598,25.2338837 C33.2249936,32.7356036 25.9591359,37.4507883 18.6403852,35.765313 Z" id="Shape" fill="#BBBEC4"></path>
                    <path d="M21.6082204,12.2364638 C16.1988632,12.2189116 11.7992433,16.6588389 11.7820179,22.152818 C11.7648933,27.6467973 16.1373198,32.1153315 21.5473929,32.1329879 C26.9567503,32.1505401 31.3556544,27.7106124 31.3728757,22.2166333 C31.3892891,16.7226541 27.0182935,12.2541203 21.6082204,12.2364638 Z M21.5516866,30.6975049 C16.8464974,30.6820554 13.0444186,26.7959271 13.0594021,22.0178525 C13.0744744,17.2390441 16.900169,13.3778551 21.6053579,13.3932128 C26.3098313,13.4086623 30.1119102,17.2947909 30.0976384,22.0735991 C30.0825703,26.8516739 26.2561601,30.7128633 21.5516866,30.6975049 Z" id="Shape" fill="#BBBEC4"></path>
                    <path d="M21.6108962,11.3713658 C15.7311603,11.3522874 10.9489647,16.1782953 10.9302415,22.1500116 C10.9116278,28.121728 15.6642652,32.9788303 21.5447793,32.9980221 C27.4245156,33.0171006 32.205933,28.1910923 32.2246517,22.219376 C32.2424924,16.2476596 27.4914103,11.3905577 21.6108962,11.3713658 Z M21.5494464,31.4377145 C16.4351105,31.4209215 12.3024161,27.1968691 12.3187026,22.0033099 C12.3350855,16.8089531 16.4934491,12.6120085 21.6077848,12.6287017 C26.7213428,12.6454947 30.8540371,16.8695474 30.8385243,22.063904 C30.8221459,27.2574635 26.6630045,31.4544084 21.5494464,31.4377145 Z" id="Shape" fill="#BBBEC4"></path>
                    <path d="M21.5595979,8.63672632 C28.8631608,8.63672632 34.7930881,14.7149018 34.7930881,22.2010538 C34.7930881,29.6872059 28.8631608,35.7653813 21.5595979,35.7653813 C14.2560349,35.7653813 8.32610762,29.6872059 8.32610762,22.2010538 C8.32610762,14.7149018 14.2560349,8.63672632 21.5595979,8.63672632 Z" id="Path" fill-opacity="0" fill="#000000"></path>
                </g>
            </g>
            <g id="gear" transform="translate(31.303304, 23.848691) rotate(14.000000) translate(-31.303304, -23.848691) translate(12.403304, 4.948691)" fill-rule="nonzero">
                <path d="M32.6207157,21.8170921 C32.6846743,21.5307664 32.7379728,21.2444406 32.7839429,20.9587839 C32.7839429,20.9587839 37.0185064,19.7077813 37.0185064,19.7077813 C37.0857956,18.5691682 37.047821,17.4425968 36.9105778,16.3381021 C36.9105778,16.3381021 32.6127215,15.4429996 32.6127215,15.4429996 C32.4601546,14.7713382 32.2589528,14.1157325 32.0151115,13.4781897 C32.0151115,13.4781897 35.0604541,10.2683981 35.0604541,10.2683981 C34.5581161,9.27227864 33.963172,8.32633363 33.2916103,7.43725176 C33.2916103,7.43725176 29.1203382,8.82138264 29.1203382,8.82138264 C28.6466483,8.30893999 28.1349825,7.83061472 27.5880068,7.38908448 C27.5880068,7.38908448 28.626661,3.08081966 28.626661,3.08081966 C27.709261,2.4847532 26.7285689,1.97030278 25.6959113,1.53947681 C25.6959113,1.53947681 22.7638284,4.84158911 22.7638284,4.84158911 C22.4300467,4.74057167 22.0916014,4.64557562 21.7458275,4.56797384 C21.3993874,4.48970216 21.0542797,4.42949338 20.7091721,4.37731311 C20.7091721,4.37731311 19.4653187,0.133938674 19.4653187,0.133938674 C18.3480494,0.0797512777 17.242106,0.124572919 16.1594806,0.269073492 C16.1594806,0.269073492 15.2633999,4.6081126 15.2633999,4.6081126 C14.5805131,4.77201458 13.9142821,4.98608969 13.2680381,5.24565634 C13.2680381,5.24565634 10.0867848,2.20244078 10.0867848,2.20244078 C9.10076319,2.71755982 8.16071108,3.31830916 7.28261874,4.00201177 C7.28261874,4.00201177 8.66771329,8.21126755 8.66771329,8.21126755 C8.17536837,8.68290282 7.7143369,9.18932472 7.28994706,9.73053389 C7.28994706,9.73053389 3.02473594,8.69293719 3.02473594,8.69293719 C2.42912603,9.63219283 1.91546199,10.6350016 1.49107216,11.6926677 C1.49107216,11.6926677 4.78625137,14.6428931 4.78625137,14.6428931 C4.70630309,14.9211909 4.63235141,15.2021648 4.56772692,15.4884905 C4.48644691,15.8530876 4.42382129,16.2176847 4.37118872,16.5816126 C4.37118872,16.5816126 0.163940899,17.8239185 0.163940899,17.8239185 C0.1119742,18.9752423 0.165939764,20.1151934 0.32317032,21.2297231 C0.32317032,21.2297231 4.64234574,22.1288393 4.64234574,22.1288393 C4.79691156,22.7523338 4.99011789,23.3637864 5.22463072,23.9578454 C5.22463072,23.9578454 2.20394039,27.1422156 2.20394039,27.1422156 C2.72959635,28.1630873 3.34585952,29.1344538 4.05006642,30.0409293 C4.05006642,30.0409293 8.2293333,28.6534534 8.2293333,28.6534534 C8.65905196,29.1023429 9.11808521,29.5258103 9.60510003,29.9185046 C9.60510003,29.9185046 8.57177599,34.2013492 8.57177599,34.2013492 C9.52581825,34.8214986 10.5478169,35.3553492 11.627111,35.7955409 C11.627111,35.7955409 14.5505326,32.5014571 14.5505326,32.5014571 C14.8443405,32.5870874 15.1408134,32.6680348 15.4432823,32.7362709 C15.7457511,32.8045082 16.0475538,32.8593642 16.3493563,32.9075315 C16.3493563,32.9075315 17.5892123,37.1402016 17.5892123,37.1402016 C18.7517854,37.2057619 19.9030325,37.1622788 21.0296292,37.0117568 C21.0296292,37.0117568 21.9210463,32.6968007 21.9210463,32.6968007 C22.5279826,32.5516315 23.1229269,32.3663223 23.7025478,32.1448886 C23.7025478,32.1448886 26.8897972,35.1934543 26.8897972,35.1934543 C27.9117951,34.6763282 28.88316,34.0628687 29.7932317,33.366456 C29.7932317,33.366456 28.4187973,29.190649 28.4187973,29.190649 C28.8838265,28.7544702 29.3188753,28.2848427 29.7246095,27.7871173 C29.7246095,27.7871173 34.0118069,28.8300655 34.0118069,28.8300655 C34.6287359,27.8901412 35.1623873,26.8833182 35.6060974,25.8203006 C35.6060974,25.8203006 32.3329044,22.8901447 32.3329044,22.8901447 C32.4401672,22.5382583 32.5387698,22.1823581 32.6207157,21.8170921 Z M16.0448888,30.0496264 C9.77565487,28.6353912 5.83489856,22.3863988 7.2433111,16.0919154 C8.65172364,9.79743204 14.8756533,5.8410529 21.1442208,7.25461828 C27.4134543,8.66952281 31.3535441,14.9178462 29.9451328,21.2129984 C28.5367203,27.5074819 22.3134562,31.4638617 16.0448888,30.0496264 Z" id="Shape" fill="#BBBEC4"></path>
                <path d="M22.106904,18.6662155 C22.100887,20.6885582 20.5125923,22.3235586 18.5612017,22.3175541 C16.6098111,22.3108479 15.0328422,20.6664817 15.0394837,18.64347 C15.0455007,16.6211273 16.6337954,14.9867961 18.585186,14.9928003 C20.5365766,14.9995066 22.1135454,16.6438727 22.106904,18.6662155 Z" id="Path" fill="#BBBEC4"></path>
                <path d="M18.5868629,10.3072264 C13.9537061,10.2924989 10.185397,14.0179179 10.1706434,18.6277622 C10.1559761,23.2376067 13.9009936,26.9870289 18.5347636,27.001844 C23.1679207,27.0165715 26.9356166,23.2911522 26.9503668,18.6813078 C26.964425,14.0714634 23.2206329,10.3220415 18.5868629,10.3072264 Z M18.5384412,25.7973703 C14.5084098,25.784407 11.2518995,22.5236653 11.264733,18.5145164 C11.2776425,14.5047518 14.55438,11.264936 18.5844112,11.2778222 C22.6138296,11.2907855 25.8703399,14.5515274 25.8581161,18.5612918 C25.84521,22.5704409 22.5678597,25.8102571 18.5384412,25.7973703 Z" id="Shape" fill="#BBBEC4"></path>
                <path d="M18.5891547,9.58134688 C13.5531148,9.5653387 9.45712678,13.6147071 9.44109018,18.6254074 C9.42514747,23.6361078 13.4958186,27.7115667 18.5325251,27.72767 C23.5685653,27.7436782 27.6638868,23.6943095 27.6799196,18.6836091 C27.6952003,13.6729087 23.6258612,9.59745022 18.5891547,9.58134688 Z M18.5365225,26.4184595 C14.1560537,26.404369 10.6163686,22.8600846 10.630318,18.5023141 C10.6443501,14.1438744 14.2060212,10.6223355 18.5864898,10.6363423 C22.9662923,10.6504328 26.5059774,14.1947175 26.4926906,18.553157 C26.4786624,22.9109276 22.9163251,26.4324669 18.5365225,26.4184595 Z" id="Shape" fill="#BBBEC4"></path>
                <path d="M18.5452173,7.28678726 C24.8007763,7.28678726 29.8798056,12.3868145 29.8798056,18.6682355 C29.8798056,24.9496566 24.8007763,30.0496838 18.5452173,30.0496838 C12.2896584,30.0496838 7.21062911,24.9496566 7.21062911,18.6682355 C7.21062911,12.3868145 12.2896584,7.28678726 18.5452173,7.28678726 Z" id="Path" fill-opacity="0" fill="#000000"></path>
            </g>
            <g id="gear" opacity="0.525995164" transform="translate(50.906678, 5.285402)" fill="#BBBEC4" fill-rule="nonzero">
                <path d="M22.8085411,15.1816571 C22.8534606,14.9813889 22.8908932,14.7811206 22.923179,14.5813203 C22.923179,14.5813203 25.8972033,13.7063165 25.8972033,13.7063165 C25.9444619,12.9099226 25.9177915,12.1219512 25.8214027,11.3494211 C25.8214027,11.3494211 22.8029266,10.7233488 22.8029266,10.7233488 C22.6957756,10.2535605 22.5544673,9.79500236 22.3832123,9.34907813 C22.3832123,9.34907813 24.5220213,7.10401484 24.5220213,7.10401484 C24.1692187,6.40728702 23.7513768,5.7456533 23.2797247,5.12379205 C23.2797247,5.12379205 20.3501513,6.0919114 20.3501513,6.0919114 C20.0174688,5.73348746 19.658115,5.39892665 19.2739623,5.09010183 C19.2739623,5.09010183 20.0034313,2.07672022 20.0034313,2.07672022 C19.3591217,1.65980628 18.6703607,1.29997802 17.9451033,0.998640214 C17.9451033,0.998640214 15.8858389,3.30827643 15.8858389,3.30827643 C15.6514169,3.23762059 15.4137196,3.17117635 15.1708752,3.1168984 C14.9275629,3.0621519 14.6851864,3.02003934 14.44281,2.98354227 C14.44281,2.98354227 13.5692253,0.0155477298 13.5692253,0.0155477298 C12.7845432,-0.0223532138 12.0078155,0.00899692737 11.2474646,0.110066705 C11.2474646,0.110066705 10.6181281,3.14497314 10.6181281,3.14497314 C10.1385221,3.25961307 9.67061384,3.40934621 9.21674295,3.59089804 C9.21674295,3.59089804 6.98248085,1.4623451 6.98248085,1.4623451 C6.28997688,1.82264102 5.62975824,2.24283037 5.01305526,2.72104073 C5.01305526,2.72104073 5.9858367,5.66517125 5.9858367,5.66517125 C5.64005237,5.99505279 5.31626013,6.34926556 5.0182021,6.72781002 C5.0182021,6.72781002 2.02265338,6.00207125 2.02265338,6.00207125 C1.60434384,6.65902615 1.24358663,7.36043279 0.945528598,8.10020893 C0.945528598,8.10020893 3.25980322,10.1637206 3.25980322,10.1637206 C3.20365384,10.3583738 3.151716,10.5548988 3.10632884,10.755167 C3.04924416,11.0101816 3.00526085,11.2651961 2.96829588,11.5197426 C2.96829588,11.5197426 0.013456014,12.3886636 0.013456014,12.3886636 C-0.0230413068,13.1939479 0.01485986,13.9912776 0.125286232,14.7708265 C0.125286232,14.7708265 3.15873523,15.3997063 3.15873523,15.3997063 C3.26729011,15.8358045 3.40298303,16.2634802 3.56768639,16.6789901 C3.56768639,16.6789901 1.44619116,18.9062725 1.44619116,18.9062725 C1.81537055,19.6203131 2.24818531,20.2997277 2.74276484,20.9337547 C2.74276484,20.9337547 5.67795309,19.9632958 5.67795309,19.9632958 C5.97975367,20.2772679 6.3021425,20.5734588 6.6441834,20.8481258 C6.6441834,20.8481258 5.91845789,23.8437274 5.91845789,23.8437274 C6.58850212,24.277486 7.30627353,24.6508835 8.06428482,24.9587721 C8.06428482,24.9587721 10.1174662,22.6547514 10.1174662,22.6547514 C10.3238137,22.7146448 10.5320329,22.7712628 10.7444633,22.81899 C10.9568936,22.866718 11.1688561,22.9050866 11.3808184,22.9387769 C11.3808184,22.9387769 12.2515957,25.8992844 12.2515957,25.8992844 C13.0680956,25.94514 13.876641,25.9147261 14.6678738,25.8094447 C14.6678738,25.8094447 15.2939351,22.7913829 15.2939351,22.7913829 C15.7201994,22.6898455 16.1380415,22.5602324 16.5451216,22.4053523 C16.5451216,22.4053523 18.7835948,24.5376474 18.7835948,24.5376474 C19.5013657,24.1759477 20.183576,23.7468683 20.8227388,23.259768 C20.8227388,23.259768 19.8574442,20.3390329 19.8574442,20.3390329 C20.1840441,20.0339512 20.4895882,19.7054739 20.7745439,19.3573439 C20.7745439,19.3573439 23.7855341,20.0868257 23.7855341,20.0868257 C24.2188165,19.4294031 24.5936113,18.7251887 24.9052383,17.9816695 C24.9052383,17.9816695 22.6064051,15.9321952 22.6064051,15.9321952 C22.681738,15.6860711 22.7509887,15.4371395 22.8085411,15.1816571 Z M11.1669844,20.9398379 C6.7639677,19.9506623 3.99629051,15.5798542 4.98544867,11.1772278 C5.97460683,6.7746014 10.3458053,4.00734344 14.748354,4.99605051 C19.1513703,5.98569425 21.9185794,10.3560344 20.9294222,14.7591286 C19.940264,19.1617551 15.5695329,21.9290135 11.1669844,20.9398379 Z" id="Shape"></path>
                <path d="M15.7293219,12.9747352 C15.7247245,14.4656592 14.511157,15.6710242 13.020159,15.6665975 C11.5291611,15.6616535 10.3242474,14.4493838 10.3293219,12.9579666 C10.3339193,11.4670427 11.5474868,10.2621711 13.0384847,10.2665975 C14.5294827,10.2715416 15.7343964,11.4838113 15.7293219,12.9747352 Z" id="Path"></path>
                <path d="M13.0479843,6.91862848 C9.76773755,6.90814833 7.09979778,9.55916723 7.08935227,12.8395458 C7.07896791,16.1199244 9.73041745,18.7880241 13.0110983,18.7985665 C16.2913453,18.8090467 18.9588509,16.1580276 18.9692939,12.877649 C18.9792471,9.59727038 16.3286652,6.92917093 13.0479843,6.91862848 Z M13.013702,17.9414596 C10.1604644,17.9322349 7.854875,15.6118817 7.86396104,12.7589597 C7.87310093,9.90559969 10.193011,7.60013738 13.0462485,7.60930724 C15.8990521,7.61853194 18.2046415,9.93888534 18.1959871,12.7922453 C18.1868497,15.6451673 15.8665057,17.9506299 13.013702,17.9414596 Z" id="Shape"></path>
            </g>
            <g id="gear" transform="translate(73.440000, 12.312000)" fill-rule="nonzero">
                <path d="M38.0142351,25.3027619 C38.089101,24.9689815 38.1514887,24.635201 38.2052983,24.3022004 C38.2052983,24.3022004 43.1620054,22.8438608 43.1620054,22.8438608 C43.2407699,21.5165376 43.1963192,20.203252 43.0356712,18.9157018 C43.0356712,18.9157018 38.0048777,17.872248 38.0048777,17.872248 C37.8262926,17.0892676 37.5907788,16.3250039 37.3053539,15.5817969 C37.3053539,15.5817969 40.8700356,11.8400247 40.8700356,11.8400247 C40.2820311,10.6788117 39.585628,9.57608883 38.7995411,8.53965342 C38.7995411,8.53965342 33.9169189,10.1531857 33.9169189,10.1531857 C33.3624481,9.55581243 32.763525,8.99821108 32.1232705,8.48350305 C32.1232705,8.48350305 33.3390521,3.46120037 33.3390521,3.46120037 C32.2652028,2.76634379 31.1172679,2.16663003 29.9085055,1.66440036 C29.9085055,1.66440036 26.4763982,5.51379406 26.4763982,5.51379406 C26.0856949,5.39603431 25.6895327,5.28529392 25.284792,5.19483067 C24.8792715,5.1035865 24.4753107,5.0333989 24.07135,4.97257045 C24.07135,4.97257045 22.6153754,0.025912883 22.6153754,0.025912883 C21.307572,-0.0372553564 20.0130259,0.0149948789 18.7457744,0.183444509 C18.7457744,0.183444509 17.6968801,5.2416219 17.6968801,5.2416219 C16.8975368,5.43268846 16.1176897,5.68224369 15.3612382,5.98483007 C15.3612382,5.98483007 11.6374681,2.43724183 11.6374681,2.43724183 C10.4832948,3.03773503 9.3829304,3.73805061 8.3550921,4.53506788 C8.3550921,4.53506788 9.97639451,9.44195208 9.97639451,9.44195208 C9.40008728,9.99175465 8.86043356,10.5821093 8.36367017,11.2130167 C8.36367017,11.2130167 3.37108896,10.0034521 3.37108896,10.0034521 C2.67390639,11.0983769 2.07264438,12.267388 1.575881,13.5003482 C1.575881,13.5003482 5.43300537,16.9395344 5.43300537,16.9395344 C5.33942307,17.2639564 5.25286,17.591498 5.17721474,17.9252784 C5.0820736,18.3503026 5.00876808,18.7753268 4.9471598,19.199571 C4.9471598,19.199571 0.0224266899,20.6477727 0.0224266899,20.6477727 C-0.038402178,21.9899132 0.0247664334,23.318796 0.208810387,24.6180442 C0.208810387,24.6180442 5.26455872,25.6661771 5.26455872,25.6661771 C5.44548351,26.3930075 5.67163838,27.1058003 5.94614399,27.7983168 C5.94614399,27.7983168 2.4103186,31.5104541 2.4103186,31.5104541 C3.02561758,32.7005218 3.74697552,33.8328794 4.57127473,34.8895912 C4.57127473,34.8895912 9.46325515,33.2721596 9.46325515,33.2721596 C9.96625611,33.7954466 10.5035708,34.289098 11.073639,34.7468763 C11.073639,34.7468763 9.86409649,39.7395456 9.86409649,39.7395456 C10.9808369,40.4624767 12.1771226,41.0848059 13.4404747,41.5979535 C13.4404747,41.5979535 16.8624436,37.757919 16.8624436,37.757919 C17.2063562,37.8577414 17.5533882,37.9521047 17.9074388,38.03165 C18.2614893,38.1111967 18.6147601,38.1751444 18.9680307,38.2312948 C18.9680307,38.2312948 20.4193261,43.165474 20.4193261,43.165474 C21.7801593,43.2419 23.127735,43.1912101 24.4464564,43.0157411 C24.4464564,43.0157411 25.4898918,37.9856382 25.4898918,37.9856382 C26.2003323,37.8164091 26.8967358,37.6003873 27.5752027,37.3422539 C27.5752027,37.3422539 31.3059913,40.8960791 31.3059913,40.8960791 C32.5022762,40.2932461 33.6392934,39.5781139 34.7045646,38.7662799 C34.7045646,38.7662799 33.0957404,33.8983882 33.0957404,33.8983882 C33.6400736,33.3899186 34.1493136,32.8424566 34.6242399,32.2622398 C34.6242399,32.2622398 39.6425568,33.4780428 39.6425568,33.4780428 C40.3646941,32.3823385 40.9893521,31.2086479 41.5087305,29.9694492 C41.5087305,29.9694492 37.6773418,26.5536587 37.6773418,26.5536587 C37.8028967,26.1434519 37.9183146,25.7285659 38.0142351,25.3027619 Z M18.6116406,34.8997298 C11.2732795,33.2511038 6.66048418,25.9664237 8.30908111,18.628713 C9.95767805,11.2910023 17.2430089,6.67890573 24.58059,8.32675086 C31.9189505,9.97615708 36.5309657,17.2600573 34.8823703,24.5985476 C33.2337733,31.9362585 25.9492215,36.5483558 18.6116406,34.8997298 Z" id="Shape" fill="#BBBEC4"></path>
                <path d="M21.6305385,11.8800507 C16.262862,11.8629013 11.8971424,16.2009323 11.8800497,21.5688245 C11.8630572,26.9367168 16.2017928,31.302698 21.5701797,31.3199493 C26.9378564,31.3370987 31.3028657,26.9990674 31.3199543,21.6311751 C31.3362412,16.2632829 26.9989254,11.897302 21.6305385,11.8800507 Z M21.5744403,29.9174106 C16.905506,29.9023157 13.1327233,26.1053741 13.1475914,21.4369563 C13.1625475,16.7678217 16.958764,12.995247 21.6276981,13.0102523 C26.2959222,13.0253472 30.0687049,16.8222892 30.0545431,21.4914236 C30.039591,26.1598415 26.2426645,29.9324166 21.5744403,29.9174106 Z" id="Shape" fill="#BBBEC4"></path>
                <path d="M21.6339317,10.8000563 C15.6698467,10.7810015 10.8190471,15.6010359 10.8000553,21.5653605 C10.7811746,27.5296853 15.601992,32.3807756 21.5668663,32.3999437 C27.5309516,32.4189985 32.3809619,27.5989638 32.3999492,21.6346391 C32.4180458,15.6703143 27.598806,10.8192244 21.6339317,10.8000563 Z M21.5716003,30.8415674 C16.3838956,30.8247952 12.1919148,26.6059712 12.2084349,21.4188404 C12.2250528,16.230913 16.4430711,12.0391634 21.6307757,12.0558359 C26.8176913,12.072608 31.0096721,16.2914324 30.9939368,21.4793596 C30.9773234,26.6664906 26.7585161,30.8582406 21.5716003,30.8415674 Z" id="Shape" fill="#BBBEC4"></path>
                <path d="M21.06,8.64 C28.5106497,8.64 34.56,14.6893503 34.56,22.14 C34.56,29.5906497 28.5106497,35.64 21.06,35.64 C13.6093503,35.64 7.56,29.5906497 7.56,22.14 C7.56,14.6893503 13.6093503,8.64 21.06,8.64 Z" id="Path" fill-opacity="0" fill="#000000"></path>
            </g>
            <g id="xls" transform="translate(0.587376, 4.897770)" fill-rule="nonzero">
                <path d="M70.0623302,64.2519842 C70.150875,64.5093717 70.0147447,64.7897209 69.7580693,64.8785666 C69.7580693,64.8785666 30.1505794,78.5905111 30.1505794,78.5905111 C29.8939047,78.6793568 29.6146794,78.5427599 29.5261372,78.2853724 C29.5261372,78.2853724 10.4264234,22.7363085 10.4264234,22.7363085 C10.3380456,22.4792535 10.4738445,22.1989056 10.7305198,22.1100599 C10.7305198,22.1100599 50.3381755,8.39794788 50.3381755,8.39794788 C50.5948502,8.30910216 50.8742411,8.44569903 50.9626177,8.70292156 C50.9626177,8.70292156 70.0623302,64.2519842 70.0623302,64.2519842 Z" id="Path" fill="#FFFFFF" transform="translate(40.244400, 43.494229) rotate(19.000000) translate(-40.244400, -43.494229) "></path>
                <path d="M47.8780595,60.4134363 L19.032706,60.4134363 L19.032706,61.9733417 L47.8780595,61.9733417 C48.7130566,61.9733417 49.396236,61.2713843 49.396236,60.4134363 L49.396236,58.8535309 C49.396236,59.7114789 48.7130566,60.4134363 47.8780595,60.4134363 Z" id="Path" fill="#CAD1D8"></path>
                <path d="M49.396236,58.8889833 C49.396236,59.7274325 48.7130566,60.4134363 47.8780595,60.4134363 L14.4781765,60.4134363 C13.6431794,60.4134363 12.96,59.7274325 12.96,58.8889833 L12.96,43.644453 C12.96,42.8060039 13.6431794,42.12 14.4781765,42.12 L47.8780595,42.12 C48.7130566,42.12 49.396236,42.8060039 49.396236,43.644453 L49.396236,58.8889833 Z" id="Path" fill="#84BD5A"></path>
                <path d="M23.6204921,50.3392499 L25.7490143,47.6781153 C26.3855817,46.8475604 27.6219914,47.9086554 26.9242156,48.7025682 C26.191245,49.5697652 25.4200191,50.5102465 24.6855183,51.4736291 L27.1812909,54.5744693 C27.8545834,55.4905225 26.5095287,56.3684068 25.848478,55.4645677 L23.5960087,52.5835803 L21.3817947,55.5271646 C20.757469,56.417263 19.3741591,55.4172383 20.0719349,54.5866833 L22.5309825,51.4736291 C21.7597566,50.5087197 21.0130141,49.5697652 20.2678018,48.7025682 C19.4981061,47.7865149 20.9288525,46.8475604 21.4919698,47.7040701 L23.6204921,50.3392499 Z" id="Path" fill="#FFFFFF"></path>
                <path d="M28.636055,48.1163111 C28.636055,47.7109215 28.9739732,47.3669546 29.3963708,47.3669546 C29.782563,47.3669546 30.1084126,47.7124571 30.1084126,48.1163111 L30.1084126,54.2677913 L33.3895373,54.2677913 C34.5707422,54.2677913 34.5963878,55.8755296 33.3895373,55.8755296 L29.3978794,55.8755296 C28.9754817,55.8755296 28.6375636,55.5699519 28.6375636,55.1277087 L28.6375636,48.1163111 L28.636055,48.1163111 L28.636055,48.1163111 Z" id="Path" fill="#FFFFFF"></path>
                <path d="M35.8371347,49.191857 C36.1141845,46.7899328 39.6405462,46.3581436 41.3028449,47.6705352 C42.1219485,48.3499454 41.2546623,49.427097 40.5319238,48.8823307 C39.6405462,48.3019688 37.6183841,48.0295857 37.3654256,49.3141199 C37.0401932,51.3446125 42.2770362,50.1823412 42.1927167,53.4741535 C42.1083972,56.6173931 37.6786123,56.6901318 36.0163136,55.2802395 C35.6173017,54.945951 35.6308531,54.4027324 35.8476746,54.0668963 C36.1608613,53.7465366 36.5086793,53.6351071 36.9197368,53.9817766 C37.9059738,54.6735679 40.4476043,55.1935721 40.6267832,53.4354627 C40.4716955,51.6061622 35.4637198,52.7065282 35.8371347,49.191857 Z" id="Path" fill="#FFFFFF"></path>
            </g>
            <g id="api" transform="translate(10.800000, 3.240000)">
                <mask id="mask-2" fill="white">
                    <use xlink:href="#path-1"></use>
                </mask>
                <g id="Mask"></g>
                <g mask="url(#mask-2)">
                    <g transform="translate(19.658880, 19.310400)">
                        <g id="lines" transform="translate(6.632640, 0.587520)" fill-opacity="0">
                            <line x1="44.3229252" y1="37.8085998" x2="44.3229252" y2="21.9557814" id="Path" stroke="#798193" fill="#000000" fill-rule="nonzero"></line>
                            <path d="M50.9733433,37.8085998 C50.9733433,37.8085998 50.9733433,12.7269106 50.9733433,12.7269106 C50.9733433,12.7269106 46.7071761,8.78231256 46.7071761,8.78231256" id="Path" stroke="#798193" fill="#000000" fill-rule="nonzero"></path>
                            <line x1="57.9305277" y1="37.8085998" x2="57.9305277" y2="13.9177326" id="Path" stroke="#798193" fill="#000000" fill-rule="nonzero"></line>
                            <path d="M63.5511813,37.8085998 C63.5511813,37.8085998 63.5511813,5.73083108 63.5511813,5.73083108 C63.5511813,5.73083108 68.111567,0 68.111567,0" id="Path" stroke="#798193" fill="#000000" fill-rule="nonzero"></path>
                            <path d="M65.4636011,41.2322132 C65.4636011,41.2322132 71.7157428,35.4269558 71.7157428,35.4269558 C71.7157428,35.4269558 84.7349084,35.1292502 84.7349084,35.1292502 C84.7349084,35.1292502 90.0308402,39.1482746 90.0308402,39.1482746" id="Path" stroke="#798193" fill="#000000" fill-rule="nonzero"></path>
                            <line x1="65.4636011" y1="54.1508281" x2="86.7208828" y2="53.86891" id="Path" stroke="#798193" fill="#000000" fill-rule="nonzero"></line>
                            <line x1="65.4636011" y1="44.8475309" x2="80.9836234" y2="44.5656128" id="Path" stroke="#798193" fill="#000000" fill-rule="nonzero"></line>
                            <path d="M65.9784834,58.0525746 C65.9784834,58.0525746 73.4074988,62.5181572 73.4074988,62.5181572 C73.4074988,62.5181572 103.050006,62.5925836 103.050006,62.5925836" id="Path" stroke="#798193" fill="#000000" fill-rule="nonzero"></path>
                            <line x1="60.9505616" y1="67.0032" x2="60.9505616" y2="99.93456" id="Path" stroke="#798193" fill="#000000" fill-rule="nonzero"></line>
                            <line x1="53.7835367" y1="67.0032" x2="53.7835367" y2="82.54224" id="Path" stroke="#798193" fill="#000000" fill-rule="nonzero"></line>
                            <path d="M44.4269832,66.9093135 C44.4269832,66.9093135 44.4269832,86.7811563 44.4269832,86.7811563 C44.4269832,86.7811563 48.1782682,90.2047697 48.1782682,90.2047697" id="Path" stroke="#798193" fill="#000000" fill-rule="nonzero"></path>
                            <line x1="38.2964318" y1="66.9837399" x2="38.5778908" y2="77.4034327" id="Path" stroke="#798193" fill="#000000" fill-rule="nonzero"></line>
                            <path d="M34.1293381,60.4342186 C34.1293381,60.4342186 29.4953978,63.1135682 29.4953978,63.1135682 C29.4953978,63.1135682 0.147109216,63.1135682 0.147109216,63.1135682" id="Path" stroke="#798193" fill="#000000" fill-rule="nonzero"></path>
                            <line x1="35.7475395" y1="54.3711833" x2="21.772164" y2="54.3711833" id="Path" stroke="#798193" fill="#000000" fill-rule="nonzero"></line>
                            <path d="M35.7475395,45.9955014 C35.7475395,45.9955014 13.6811571,45.9955014 13.6811571,45.9955014 C13.6811571,45.9955014 9.70920826,50.3866577 9.70920826,50.3866577" id="Path" stroke="#798193" fill="#000000" fill-rule="nonzero"></path>
                            <path d="M33.8351197,40.7112286 C33.8351197,40.7112286 25.1556759,30.8869467 25.1556759,30.8869467 C25.1556759,30.8869467 25.0821213,17.4901987 25.0821213,17.4901987 C25.0821213,17.4901987 29.5689524,11.9082204 29.5689524,11.9082204" id="Path" stroke="#798193" fill="#000000" fill-rule="nonzero"></path>
                        </g>
                        <g id="square" transform="translate(39.090240, 31.665600)">
                            <path d="M35.8229617,35.3453918 C35.8229617,35.8091023 35.4473942,36.1885022 34.9883676,36.1885022 C34.9883676,36.1885022 0.834594133,36.1885022 0.834594133,36.1885022 C0.375567519,36.1885022 0,35.8091023 0,35.3453918 C0,35.3453918 0,0.8431104 0,0.8431104 C0,0.379399841 0.375567519,0 0.834594133,0 C0.834594133,0 34.9883676,0 34.9883676,0 C35.4473942,0 35.8229617,0.379399841 35.8229617,0.8431104 C35.8229617,0.8431104 35.8229617,35.3453918 35.8229617,35.3453918 Z" id="Path" fill="#4B545F" fill-rule="nonzero"></path>
                            <path d="M31.279581,31.5546788 C31.279581,31.5546788 4.32,31.5546788 4.32,31.5546788 C4.32,31.5546788 4.32,4.32 4.32,4.32 C4.32,4.32 31.279581,4.32 31.279581,4.32 C31.279581,4.32 31.279581,31.5546788 31.279581,31.5546788 Z" id="Path" fill="#686E81" fill-rule="nonzero"></path>
                            <path d="M28.8543282,29.144466 C28.8543282,29.144466 6.48,29.144466 6.48,29.144466 C6.48,29.144466 6.48,6.48 6.48,6.48 C6.48,6.48 28.8543282,6.48 28.8543282,6.48 C28.8543282,6.48 28.8543282,29.144466 28.8543282,29.144466 Z" id="Path" fill="#AAB3C0" fill-rule="nonzero"></path>
                            <path d="M15.2588292,22.8339844 C15.4908605,22.8339844 15.6890538,22.7518066 15.8534093,22.5874512 C16.0177648,22.4230957 16.0999425,22.2423047 16.0999425,22.0450781 C16.0999425,21.8555859 16.0129308,21.5520117 15.8389073,21.1343555 L15.8389073,21.1343555 L13.6172081,15.6468164 C13.5127941,15.3722461 13.4267491,15.1527832 13.3590734,14.9884277 C13.2913976,14.8240723 13.208253,14.6703516 13.1096398,14.5272656 C13.0110265,14.3841797 12.8814757,14.2671973 12.7209874,14.1763184 C12.5604991,14.0854395 12.3603722,14.04 12.1206066,14.04 C11.8847081,14.04 11.6865148,14.0854395 11.5260265,14.1763184 C11.3655382,14.2671973 11.2359874,14.3861133 11.1373741,14.5330664 C11.0387609,14.6800195 10.9459484,14.8646777 10.8589366,15.087041 C10.7719249,15.3094043 10.6974816,15.4998633 10.6356066,15.658418 L10.6356066,15.658418 L8.46031359,21.1807617 C8.37136828,21.4011914 8.30755969,21.5732812 8.26888781,21.6970312 C8.23021594,21.8207812 8.21088,21.9406641 8.21088,22.0566797 C8.21088,22.2577734 8.29402453,22.4375977 8.46031359,22.5961523 C8.62660266,22.754707 8.81802844,22.8339844 9.03459094,22.8339844 C9.28982531,22.8339844 9.47351672,22.759541 9.58566516,22.6106543 C9.69781359,22.4617676 9.83316516,22.1746289 9.99171984,21.7492383 L9.99171984,21.7492383 L10.3977745,20.6586914 L13.8550402,20.6586914 L14.2610948,21.7260352 C14.3152355,21.8575195 14.3800109,22.0093066 14.455421,22.1813965 C14.5308312,22.3534863 14.6014073,22.4811035 14.6671495,22.564248 C14.7328917,22.6473926 14.8141027,22.7131348 14.9107823,22.7614746 C15.007462,22.8098145 15.1234777,22.8339844 15.2588292,22.8339844 Z M13.3909777,19.3651172 L10.8502355,19.3651172 L12.109005,15.8556445 L13.3909777,19.3651172 Z M18.2288292,22.8339844 C18.4763292,22.8339844 18.6812902,22.7450391 18.843712,22.5671484 C19.0061339,22.3892578 19.0873448,22.1282227 19.0873448,21.784043 L19.0873448,21.784043 L19.0873448,19.3767187 L20.6651573,19.3767187 C21.7208995,19.3767187 22.5156066,19.1533887 23.0492784,18.7067285 C23.5829503,18.2600684 23.8497862,17.6036133 23.8497862,16.7373633 C23.8497862,16.3313086 23.7840441,15.9658594 23.6525597,15.6410156 C23.5210753,15.3161719 23.3286827,15.0416016 23.075382,14.8173047 C22.8220812,14.5930078 22.5214073,14.4325195 22.1733605,14.3358398 C21.8214464,14.235293 21.318712,14.1850195 20.6651573,14.1850195 L20.6651573,14.1850195 L18.4550597,14.1850195 C18.0760753,14.1850195 17.7995714,14.2662305 17.625548,14.4286523 C17.4515245,14.5910742 17.3645128,14.8617773 17.3645128,15.2407617 L17.3645128,15.2407617 L17.3645128,21.7956445 C17.3645128,22.135957 17.4437902,22.3940918 17.6023448,22.5700488 C17.7608995,22.7460059 17.9697277,22.8339844 18.2288292,22.8339844 Z M20.2475011,18.0773437 L19.0873448,18.0773437 L19.0873448,15.4785937 L20.2475011,15.4785937 C21.0170714,15.4785937 21.5256066,15.6042773 21.7731066,15.8556445 C21.9935362,16.091543 22.1037511,16.3970508 22.1037511,16.772168 C22.1037511,17.0854102 22.0322081,17.3387109 21.8891222,17.5320703 C21.7460362,17.7254297 21.5381749,17.8646484 21.2655382,17.9497266 C20.9929015,18.0348047 20.6535558,18.0773437 20.2475011,18.0773437 L20.2475011,18.0773437 Z M26.2107042,22.8339844 C26.4698058,22.8339844 26.6796007,22.7469727 26.840089,22.5729492 C27.0005773,22.3989258 27.0808214,22.135957 27.0808214,21.784043 L27.0808214,21.784043 L27.0808214,15.0841406 C27.0808214,14.7322266 27.0005773,14.4702246 26.840089,14.2981348 C26.6796007,14.1260449 26.4698058,14.04 26.2107042,14.04 C25.959337,14.04 25.7543761,14.1270117 25.5958214,14.3010352 C25.4372667,14.4750586 25.3579894,14.7360937 25.3579894,15.0841406 L25.3579894,15.0841406 L25.3579894,21.784043 C25.3579894,22.1320898 25.4382335,22.3940918 25.5987218,22.5700488 C25.7592101,22.7460059 25.9632042,22.8339844 26.2107042,22.8339844 Z" id="API" fill="#FFFFFF" fill-rule="nonzero"></path>
                        </g>
                        <g id="dots" transform="translate(0.000000, 3.866400)">
                            <g id="dot" transform="translate(41.361120, 72.990720)" fill-rule="nonzero">
                                <path d="M7.73826657,3.85536597 C7.73355493,5.98114774 5.99740066,7.70170469 3.86058431,7.69824 C1.72369678,7.69476456 -0.00469222916,5.96865577 0,3.84280463 C0.00478284353,1.7170229 1.74079471,-0.00346469178 3.87768226,0 C6.01449859,0.00347543547 7.7429588,1.72958423 7.73826657,3.85536597 Z" id="Path" fill="#FFCC00"></path>
                                <path d="M6.48639191,3.8535429 C6.48319383,5.34947716 5.31293258,6.56023802 3.87244725,6.55776 C2.43202458,6.55533772 1.26689476,5.34069473 1.27008,3.84469687 C1.27327808,2.34876265 2.44347678,1.13806539 3.88396212,1.14048 C5.32438478,1.14290208 6.48957714,2.35760868 6.48639191,3.8535429 Z" id="Path" fill="#FFFF33"></path>
                            </g>
                            <g id="dot" transform="translate(21.873600, 46.902240)" fill-rule="nonzero">
                                <path d="M7.73826657,3.85536597 C7.73355493,5.98114774 5.99740066,7.70170469 3.86058431,7.69824 C1.72369678,7.69476456 -0.00469222916,5.96865577 0,3.84280463 C0.00478284353,1.7170229 1.74079471,-0.00346469178 3.87768226,0 C6.01449859,0.00347543547 7.7429588,1.72958423 7.73826657,3.85536597 Z" id="Path" fill="#FFCC00"></path>
                                <path d="M6.48639191,3.8535429 C6.48319383,5.34947716 5.31293258,6.56023802 3.87244725,6.55776 C2.43202458,6.55533772 1.26689476,5.34069473 1.27008,3.84469687 C1.27327808,2.34876265 2.44347678,1.13806539 3.88396212,1.14048 C5.32438478,1.14290208 6.48957714,2.35760868 6.48639191,3.8535429 Z" id="Path" fill="#FFFF33"></path>
                            </g>
                            <g id="dot" transform="translate(10.584000, 45.048960)" fill-rule="nonzero">
                                <path d="M7.73826657,3.85536597 C7.73355493,5.98114774 5.99740066,7.70170469 3.86058431,7.69824 C1.72369678,7.69476456 -0.00469222916,5.96865577 0,3.84280463 C0.00478284353,1.7170229 1.74079471,-0.00346469178 3.87768226,0 C6.01449859,0.00347543547 7.7429588,1.72958423 7.73826657,3.85536597 Z" id="Path" fill="#FFCC00"></path>
                                <path d="M6.48639191,3.8535429 C6.48319383,5.34947716 5.31293258,6.56023802 3.87244725,6.55776 C2.43202458,6.55533772 1.26689476,5.34069473 1.27008,3.84469687 C1.27327808,2.34876265 2.44347678,1.13806539 3.88396212,1.14048 C5.32438478,1.14290208 6.48957714,2.35760868 6.48639191,3.8535429 Z" id="Path" fill="#FFFF33"></path>
                            </g>
                            <g id="dot" transform="translate(34.292160, 2.708640)" fill-rule="nonzero">
                                <path d="M7.73826657,3.85536597 C7.73355493,5.98114774 5.99740066,7.70170469 3.86058431,7.69824 C1.72369678,7.69476456 -0.00469222916,5.96865577 0,3.84280463 C0.00478284353,1.7170229 1.74079471,-0.00346469178 3.87768226,0 C6.01449859,0.00347543547 7.7429588,1.72958423 7.73826657,3.85536597 Z" id="Path" fill="#FFCC00"></path>
                                <path d="M6.48639191,3.8535429 C6.48319383,5.34947716 5.31293258,6.56023802 3.87244725,6.55776 C2.43202458,6.55533772 1.26689476,5.34069473 1.27008,3.84469687 C1.27327808,2.34876265 2.44347678,1.13806539 3.88396212,1.14048 C5.32438478,1.14290208 6.48957714,2.35760868 6.48639191,3.8535429 Z" id="Path" fill="#FFFF33"></path>
                            </g>
                            <g id="dot" transform="translate(46.851840, 11.975040)" fill-rule="nonzero">
                                <path d="M7.73826657,3.85536597 C7.73355493,5.98114774 5.99740066,7.70170469 3.86058431,7.69824 C1.72369678,7.69476456 -0.00469222916,5.96865577 0,3.84280463 C0.00478284353,1.7170229 1.74079471,-0.00346469178 3.87768226,0 C6.01449859,0.00347543547 7.7429588,1.72958423 7.73826657,3.85536597 Z" id="Path" fill="#FFCC00"></path>
                                <path d="M6.48639191,3.8535429 C6.48319383,5.34947716 5.31293258,6.56023802 3.87244725,6.55776 C2.43202458,6.55533772 1.26689476,5.34069473 1.27008,3.84469687 C1.27327808,2.34876265 2.44347678,1.13806539 3.88396212,1.14048 C5.32438478,1.14290208 6.48957714,2.35760868 6.48639191,3.8535429 Z" id="Path" fill="#FFFF33"></path>
                            </g>
                            <g id="dot" transform="translate(47.839680, 0.000000)">
                                <g id="Group"></g>
                                <g id="Group" transform="translate(1.270080, 1.140480)"></g>
                                <path d="M7.73826657,3.85536597 C7.73355493,5.98114774 5.99740066,7.70170469 3.86058431,7.69824 C1.72369678,7.69476456 -0.00469222916,5.96865577 0,3.84280463 C0.00478284353,1.7170229 1.74079471,-0.00346469178 3.87768226,0 C6.01449859,0.00347543547 7.7429588,1.72958423 7.73826657,3.85536597 Z" id="Path" fill="#FFCC00" fill-rule="nonzero"></path>
                                <path d="M6.48639191,3.8535429 C6.48319383,5.34947716 5.31293258,6.56023802 3.87244725,6.55776 C2.43202458,6.55533772 1.26689476,5.34069473 1.27008,3.84469687 C1.27327808,2.34876265 2.44347678,1.13806539 3.88396212,1.14048 C5.32438478,1.14290208 6.48957714,2.35760868 6.48639191,3.8535429 Z" id="Path" fill="#FFFF33" fill-rule="nonzero"></path>
                            </g>
                            <g id="dot" transform="translate(60.399360, 3.849120)" fill-rule="nonzero">
                                <path d="M7.73826657,3.85536597 C7.73355493,5.98114774 5.99740066,7.70170469 3.86058431,7.69824 C1.72369678,7.69476456 -0.00469222916,5.96865577 0,3.84280463 C0.00478284353,1.7170229 1.74079471,-0.00346469178 3.87768226,0 C6.01449859,0.00347543547 7.7429588,1.72958423 7.73826657,3.85536597 Z" id="Path" fill="#FFCC00"></path>
                                <path d="M6.48639191,3.8535429 C6.48319383,5.34947716 5.31293258,6.56023802 3.87244725,6.55776 C2.43202458,6.55533772 1.26689476,5.34069473 1.27008,3.84469687 C1.27327808,2.34876265 2.44347678,1.13806539 3.88396212,1.14048 C5.32438478,1.14290208 6.48957714,2.35760868 6.48639191,3.8535429 Z" id="Path" fill="#FFFF33"></path>
                            </g>
                            <g id="dot" transform="translate(0.000000, 56.026080)" fill-rule="nonzero">
                                <path d="M7.73826657,3.85536597 C7.73355493,5.98114774 5.99740066,7.70170469 3.86058431,7.69824 C1.72369678,7.69476456 -0.00469222916,5.96865577 0,3.84280463 C0.00478284353,1.7170229 1.74079471,-0.00346469178 3.87768226,0 C6.01449859,0.00347543547 7.7429588,1.72958423 7.73826657,3.85536597 Z" id="Path" fill="#FFCC00"></path>
                                <path d="M6.48639191,3.8535429 C6.48319383,5.34947716 5.31293258,6.56023802 3.87244725,6.55776 C2.43202458,6.55533772 1.26689476,5.34069473 1.27008,3.84469687 C1.27327808,2.34876265 2.44347678,1.13806539 3.88396212,1.14048 C5.32438478,1.14290208 6.48957714,2.35760868 6.48639191,3.8535429 Z" id="Path" fill="#FFFF33"></path>
                            </g>
                        </g>
                    </g>
                </g>
            </g>
            <g id="dot" transform="translate(101.520000, 18.360000)" fill-rule="nonzero">
                <path d="M7.53727263,3.78613381 C7.53268337,5.87374217 5.84162402,7.56340248 3.76030939,7.56 C1.67892543,7.55658697 -0.00457035308,5.86147453 0,3.77379804 C0.00465861383,1.68618972 1.69557926,-0.00340247509 3.77696324,0 C5.85827785,0.00341302585 7.54184299,1.69852547 7.53727263,3.78613381 Z" id="Path" fill="#FFCC00"></path>
                <path d="M6.3179142,3.78434348 C6.31479918,5.25341472 5.17493433,6.44243352 3.7718642,6.44 C2.36885511,6.43762122 1.23398841,5.24479 1.23709091,3.7756563 C1.24020592,2.30658509 2.38000985,1.11762875 3.78307998,1.12 C5.18608908,1.12237859 6.3210167,2.31527227 6.3179142,3.78434348 Z" id="Path" fill="#FFFF33"></path>
            </g>
        </g>
    </g>
</svg>